C:\Users\Artom_Bacun\JAVA\Workspace\news-management\news-common\src\main\java\com\epam\newsmanagement\dao\DAO.java
C:\Users\Artom_Bacun\JAVA\Workspace\news-management\news-common\src\main\java\com\epam\newsmanagement\entity\Author.java
C:\Users\Artom_Bacun\JAVA\Workspace\news-management\news-common\src\main\java\com\epam\newsmanagement\entity\News.java
C:\Users\Artom_Bacun\JAVA\Workspace\news-management\news-common\src\main\java\com\epam\newsmanagement\exception\ServiceException.java
C:\Users\Artom_Bacun\JAVA\Workspace\news-management\news-common\src\main\java\com\epam\newsmanagement\dao\impl\DaoAuthorImpl.java
C:\Users\Artom_Bacun\JAVA\Workspace\news-management\news-common\src\main\java\com\epam\newsmanagement\dao\impl\DaoNewsImpl.java
C:\Users\Artom_Bacun\JAVA\Workspace\news-management\news-common\src\main\java\com\epam\newsmanagement\dao\impl\DaoTagImpl.java
C:\Users\Artom_Bacun\JAVA\Workspace\news-management\news-common\src\main\java\com\epam\newsmanagement\entity\Comment.java
C:\Users\Artom_Bacun\JAVA\Workspace\news-management\news-common\src\main\java\com\epam\newsmanagement\dao\DaoComment.java
C:\Users\Artom_Bacun\JAVA\Workspace\news-management\news-common\src\main\java\com\epam\newsmanagement\utils\Queries.java
C:\Users\Artom_Bacun\JAVA\Workspace\news-management\news-common\src\main\java\com\epam\newsmanagement\dao\DaoNews.java
C:\Users\Artom_Bacun\JAVA\Workspace\news-management\news-common\src\main\java\com\epam\newsmanagement\dao\impl\DaoCommentImpl.java
C:\Users\Artom_Bacun\JAVA\Workspace\news-management\news-common\src\main\java\com\epam\newsmanagement\dao\DaoUser.java
C:\Users\Artom_Bacun\JAVA\Workspace\news-management\news-common\src\main\java\com\epam\newsmanagement\entity\Tag.java
C:\Users\Artom_Bacun\JAVA\Workspace\news-management\news-common\src\main\java\com\epam\newsmanagement\dao\DaoAuthor.java
C:\Users\Artom_Bacun\JAVA\Workspace\news-management\news-common\src\main\java\com\epam\newsmanagement\dao\DaoTag.java
C:\Users\Artom_Bacun\JAVA\Workspace\news-management\news-common\src\main\java\com\epam\newsmanagement\entity\Entity.java
C:\Users\Artom_Bacun\JAVA\Workspace\news-management\news-common\src\main\java\com\epam\newsmanagement\exception\DaoException.java
C:\Users\Artom_Bacun\JAVA\Workspace\news-management\news-common\src\main\java\com\epam\newsmanagement\utils\TitlesAtDB.java
C:\Users\Artom_Bacun\JAVA\Workspace\news-management\news-common\src\main\java\com\epam\newsmanagement\utils\Messages.java
C:\Users\Artom_Bacun\JAVA\Workspace\news-management\news-common\src\main\java\com\epam\newsmanagement\entity\User.java
